<?xml version="1.0" standalone="no"?>
<!DOCTYPE svg PUBLIC "-//W3C//DTD SVG 20010904//EN"
 "http://www.w3.org/TR/2001/REC-SVG-20010904/DTD/svg10.dtd">
<svg version="1.0" xmlns="http://www.w3.org/2000/svg"
 width="128.000000pt" height="128.000000pt" viewBox="0 0 128.000000 128.000000"
 preserveAspectRatio="xMidYMid meet">
<metadata>
Created by potrace 1.14, written by Peter Selinger 2001-2017
</metadata>
<g transform="translate(0.000000,128.000000) scale(0.100000,-0.100000)"
fill="#000000" stroke="none">
<path d="M0 640 l0 -640 640 0 640 0 0 640 0 640 -640 0 -640 0 0 -640z m522
165 c25 -9 58 -29 73 -45 l27 -29 50 34 c82 57 155 68 242 39 138 -47 177
-196 75 -288 -83 -75 -223 -73 -308 5 l-34 30 -26 -24 c-112 -105 -316 -78
-373 50 -66 149 100 287 274 228z"/>
<path d="M363 705 c-84 -36 -61 -129 35 -142 51 -7 122 25 154 69 l21 31 -22
18 c-46 38 -132 49 -188 24z"/>
<path d="M794 702 c-38 -18 -84 -64 -84 -83 0 -16 63 -48 105 -55 56 -8 121
11 141 41 49 75 -64 142 -162 97z"/>
</g>
</svg>
